%YAML 1.1
%TAG !u! tag:unity3d.com,2011:
--- !u!21 &2100000
Material:
  serializedVersion: 6
  m_ObjectHideFlags: 0
  m_CorrespondingSourceObject: {fileID: 0}
  m_PrefabInstance: {fileID: 0}
  m_PrefabAsset: {fileID: 0}
  m_Name: Gradient Skybox (Flatkit)
  m_Shader: {fileID: 4800000, guid: e32cae2a5bbfb41888ef2ba8391ab87d, type: 3}
  m_ShaderKeywords: 
  m_LightmapFlags: 4
  m_EnableInstancingVariants: 0
  m_DoubleSidedGI: 0
  m_CustomRenderQueue: -1
  stringTagMap: {}
  disabledShaderPasses: []
  m_SavedProperties:
    serializedVersion: 3
    m_TexEnvs: []
    m_Floats:
    - _DirectionPitch: 0
    - _DirectionYaw: 0
    - _Exponent: 1
    - _Intensity: 1
    m_Colors:
    - _Color1: {r: 0, g: 0.71079165, b: 0.754717, a: 0}
    - _Color2: {r: 0.8773585, g: 0.50906885, b: 0.31038627, a: 0}
    - _Direction: {r: 0, g: 1, b: 0, a: 0}
  m_BuildTextureStacks: []
